{
  "data": [
    {
      "user": {
        "data": {
          "name": "user name"
        }
      },
      "type": "type",
      "message": "loremadasda s",
      "created_at": "created_at"
    },
    {
      "user": {
        "data": {
          "name": "user name"
        }
      },
      "type": "type",
      "message": "loremadasda s",
      "created_at": "created_at"
    },
    {
      "user": {
        "data": {
          "name": "user name"
        }
      },
      "type": "type",
      "message": "loremadasda s",
      "created_at": "created_at"
    },
    {
      "user": {
        "data": {
          "name": "user name"
        }
      },
      "type": "type",
      "message": "loremadasda s",
      "created_at": "created_at"
    },
    {
      "user": {
        "data": {
          "name": "user name"
        }
      },
      "type": "type",
      "message": "loremadasda s",
      "created_at": "created_at"
    }
  ]
}
