{
  "data": [
    {
      "id": "1",
      "name":"namenamename",
      "status":"not_ready",
      "created_at":"14.07.2017 15:34",
      "data":{
        "user":{
          "name":"афа фыа"
        }
      }
    }, {
      "id": "2",
      "name":"namenamename",
      "status":"rendering",
      "created_at":"14.07.2017 15:34",
      "data":{
        "user":{
          "name":"прлгпд Name"
        }
      }
    }, {
      "id": "3",
      "name":"namenamename",
      "status":"not_ready",
      "created_at":"4.07.2017 15:34",
      "data":{
        "user":{
          "name":"укетит Name"
        }
      }
    }, {
      "id": "4",
      "name":"namenamename",
      "status":"ready",
      "created_at":"1.07.2017 15:30",
      "data":{
        "user":{
          "name":"дгшрбщпь Name"
        }
      }
    }, {
      "id": "5",
      "name":"namenamename",
      "status":"not_ready",
      "created_at":"10.07.2017 15:34",
      "data":{
        "user":{
          "name":"241 Name"
        }
      }
    }, {
      "id": "6",
      "name":"namenamename",
      "status":"",
      "created_at":"10.07.2017 15:34",
      "data":{
        "user":{
          "name":"241 Name"
        }
      }
    }
  ]
}
